{
  "project_info": {
    "project_number": "706258749897",
    "firebase_url": "https://mobile-lp.firebaseio.com",
    "project_id": "mobile-lp",
    "storage_bucket": "mobile-lp.appspot.com"
  },
  "client": [
    {
      "client_info": {
        "mobilesdk_app_id": "1:706258749897:android:774f8acef7fdfbc3284018",
        "android_client_info": {
          "package_name": "com.lendingpoint.customerportal"
        }
      },
      "oauth_client": [
        {
          "client_id": "706258749897-rufgo5q0innvl50el9b5p1gnlplmlcjb.apps.googleusercontent.com",
          "client_type": 1,
          "android_info": {
            "package_name": "com.lendingpoint.customerportal",
            "certificate_hash": "99ee10030db5caa8b3f86d55d17e7c7023b32e2e"
          }
        },
        {
          "client_id": "706258749897-2hlb7ptsk8pkms6o33ffntd1c39dknro.apps.googleusercontent.com",
          "client_type": 3
        }
      ],
      "api_key": [
        {
          "current_key": "AIzaSyApYdQjQEsVKgnZ8j4zqLhswr02bL8qYas"
        }
      ],
      "services": {
        "appinvite_service": {
          "other_platform_oauth_client": [
            {
              "client_id": "706258749897-2hlb7ptsk8pkms6o33ffntd1c39dknro.apps.googleusercontent.com",
              "client_type": 3
            },
            {
              "client_id": "706258749897-qj6uch7mfaktv1vru9dv8kv66eqj0s38.apps.googleusercontent.com",
              "client_type": 2,
              "ios_info": {
                "bundle_id": "com.lendingpoint.cp",
                "app_store_id": "1383737372"
              }
            }
          ]
        }
      }
    },
    {
      "client_info": {
        "mobilesdk_app_id": "1:706258749897:android:609cf5c6d27df985284018",
        "android_client_info": {
          "package_name": "com.lendingpoint.customerportal.qa"
        }
      },
      "oauth_client": [
        {
          "client_id": "706258749897-2hlb7ptsk8pkms6o33ffntd1c39dknro.apps.googleusercontent.com",
          "client_type": 3
        }
      ],
      "api_key": [
        {
          "current_key": "AIzaSyApYdQjQEsVKgnZ8j4zqLhswr02bL8qYas"
        }
      ],
      "services": {
        "appinvite_service": {
          "other_platform_oauth_client": [
            {
              "client_id": "706258749897-2hlb7ptsk8pkms6o33ffntd1c39dknro.apps.googleusercontent.com",
              "client_type": 3
            },
            {
              "client_id": "706258749897-qj6uch7mfaktv1vru9dv8kv66eqj0s38.apps.googleusercontent.com",
              "client_type": 2,
              "ios_info": {
                "bundle_id": "com.lendingpoint.cp",
                "app_store_id": "1383737372"
              }
            }
          ]
        }
      }
    },
    {
      "client_info": {
        "mobilesdk_app_id": "1:706258749897:android:7a77dd18ce5c83ca284018",
        "android_client_info": {
          "package_name": "com.lendingpoint.mobile"
        }
      },
      "oauth_client": [
        {
          "client_id": "706258749897-2hlb7ptsk8pkms6o33ffntd1c39dknro.apps.googleusercontent.com",
          "client_type": 3
        }
      ],
      "api_key": [
        {
          "current_key": "AIzaSyApYdQjQEsVKgnZ8j4zqLhswr02bL8qYas"
        }
      ],
      "services": {
        "appinvite_service": {
          "other_platform_oauth_client": [
            {
              "client_id": "706258749897-2hlb7ptsk8pkms6o33ffntd1c39dknro.apps.googleusercontent.com",
              "client_type": 3
            },
            {
              "client_id": "706258749897-qj6uch7mfaktv1vru9dv8kv66eqj0s38.apps.googleusercontent.com",
              "client_type": 2,
              "ios_info": {
                "bundle_id": "com.lendingpoint.cp",
                "app_store_id": "1383737372"
              }
            }
          ]
        }
      }
    }
  ],
  "configuration_version": "1"
}